^C:\USERS\USER\SOURCE\REPOS\SW3 GDSTRUC\SW3 GDSTRUC\DEBUG\SOURCE.OBJ
C:\USERS\USER\SOURCE\REPOS\SW3 GDSTRUC\DEBUG\SW3 GDSTRUC.EXE
C:\USERS\USER\SOURCE\REPOS\SW3 GDSTRUC\DEBUG\SW3 GDSTRUC.ILK
C:\USERS\USER\SOURCE\REPOS\SW3 GDSTRUC\DEBUG\SW3 GDSTRUC.PDB
