^C:\USERS\11816592\SOURCE\REPOS\GDSTRUCT DIAGNOSTIC SW\GDSTRUCT DIAGNOSTIC SW\STDAFX.CPP
C:\USERS\11816592\SOURCE\REPOS\GDSTRUCT DIAGNOSTIC SW\GDSTRUCT DIAGNOSTIC SW\DEBUG\GDSTRUCT DIAGNOSTIC SW.PCH
C:\USERS\11816592\SOURCE\REPOS\GDSTRUCT DIAGNOSTIC SW\GDSTRUCT DIAGNOSTIC SW\DEBUG\VC141.PDB
C:\USERS\11816592\SOURCE\REPOS\GDSTRUCT DIAGNOSTIC SW\GDSTRUCT DIAGNOSTIC SW\DEBUG\VC141.IDB
C:\USERS\11816592\SOURCE\REPOS\GDSTRUCT DIAGNOSTIC SW\GDSTRUCT DIAGNOSTIC SW\DEBUG\STDAFX.OBJ
^C:\USERS\11816592\SOURCE\REPOS\GDSTRUCT DIAGNOSTIC SW\GDSTRUCT DIAGNOSTIC SW\GDSTRUCT DIAGNOSTIC SW.CPP
C:\USERS\11816592\SOURCE\REPOS\GDSTRUCT DIAGNOSTIC SW\GDSTRUCT DIAGNOSTIC SW\DEBUG\VC141.PDB
C:\USERS\11816592\SOURCE\REPOS\GDSTRUCT DIAGNOSTIC SW\GDSTRUCT DIAGNOSTIC SW\DEBUG\VC141.IDB
C:\USERS\11816592\SOURCE\REPOS\GDSTRUCT DIAGNOSTIC SW\GDSTRUCT DIAGNOSTIC SW\DEBUG\GDSTRUCT DIAGNOSTIC SW.OBJ
