^C:\USERS\CELINE SUMO\SOURCE\REPOS\GDSTRUC SW3\GDSTRUC SW3\SOURCE.CPP
C:\USERS\CELINE SUMO\SOURCE\REPOS\GDSTRUC SW3\GDSTRUC SW3\DEBUG\VC142.PDB
C:\USERS\CELINE SUMO\SOURCE\REPOS\GDSTRUC SW3\GDSTRUC SW3\DEBUG\VC142.IDB
C:\USERS\CELINE SUMO\SOURCE\REPOS\GDSTRUC SW3\GDSTRUC SW3\DEBUG\SOURCE.OBJ
